{
    "componentChunkName": "component---src-templates-post-list-template-tsx",
    "path": "/page/4",
    "result": {"data":{"allMdx":{"nodes":[{"slug":"2021-02-08-imported-constant-mock","excerpt":"함수를 mock 하는 법은 많은데 의외로 import 된 상수를 mock 하는 방법을 찾기 어려웠다.\n (아니면 그냥 내가 검색을 못하는 걸 수도...) 예를 들면 아래와 같은 코드에서  modeToText  함수를 테스트 하는 경우  isProduction 를 mo…","frontmatter":{"title":"imported constant를 mock 하는 법","date":"2021-02-08T01:43:13+09:00","excerpt":null,"tags":["Jest","test"]}}],"pageInfo":{"currentPage":4,"hasNextPage":false,"hasPreviousPage":true,"itemCount":1,"pageCount":4,"perPage":10,"totalCount":31}}},"pageContext":{"limit":10,"skip":30}},
    "staticQueryHashes": ["1957264973","5457840"]}